^C:\USERS\ВЛАДЕЛЕЦ\DOCUMENTS\VISUAL STUDIO 2012\PROJECTS\LAB1\ВРЕМЯ\DEBUG\TIME.OBJ
C:\USERS\владелец\DOCUMENTS\VISUAL STUDIO 2012\PROJECTS\LAB1\DEBUG\время.ILK
C:\USERS\владелец\DOCUMENTS\VISUAL STUDIO 2012\PROJECTS\LAB1\DEBUG\время.EXE
C:\USERS\ВЛАДЕЛЕЦ\DOCUMENTS\VISUAL STUDIO 2012\PROJECTS\LAB1\DEBUG\ВРЕМЯ.PDB
